Name,Target,Icon
Discord,C:\Users\fred\AppData\Local\Discord\Update.exe,"C:\Users\fred\AppData\Local\Discord\app.ico,0"
File Explorer,,"%windir%\explorer.exe,0"
Firefox,C:\Program Files\Mozilla Firefox\firefox.exe,",0"
GIMP,C:\Program Files\GIMP 2\bin\gimp-2.10.exe,",0"
Google Chrome,C:\Program Files\Google\Chrome\Application\chrome.exe,"C:\Program Files\Google\Chrome\Application\chrome.exe,0"
OBS Studio,C:\Program Files\obs-studio\bin\64bit\obs64.exe,",0"
Postman,C:\Users\fred\AppData\Local\Postman\Postman.exe,"C:\Users\fred\AppData\Local\Postman\Postman.exe,0"
PowerShell 7 (x64),C:\Program Files\PowerShell\7\pwsh.exe,",0"
Revo Uninstaller,C:\Program Files\VS Revo Group\Revo Uninstaller\RevoUnin.exe,",0"
"SSH, Telnet, Rlogin, and SUPDUP client",C:\ProgramData\chocolatey\lib\putty.portable\tools\PUTTY.EXE,",0"
Steam,C:\Program Files (x86)\Steam\steam.exe,",0"
Visual Studio Code,C:\Program Files\Microsoft VS Code\Code.exe,",0"
VLC media player,C:\Program Files\VideoLAN\VLC\vlc.exe,",0"
Word,C:\Program Files\Microsoft Office\root\Office16\WINWORD.EXE,"C:\Program Files\Microsoft Office\Root\VFS\Windows\Installer\{90160000-000F-0000-1000-0000000FF1CE}\wordicon.exe,0"