{
  "distro": [
    {
      "name": "alma",
      "source": "current",
      "releases": {
        "latest": {
          "version": "9.4",
          "date": "2024/05/03",
          "url": "https://repo.almalinux.org/almalinux/9.4/isos/x86_64/AlmaLinux-9.4-x86_64-dvd.iso"
        },
        "all": [
          "9.4",
          "9.3",
          "9.2",
          "9.1",
          "9.0",
          "9",
          "8.10",
          "8.9",
          "8.8",
          "8.7",
          "8.6",
          "8.5",
          "8.4",
          "8.3",
          "8"
        ],
        "valid": [
          {
            "version": "9.4",
            "url": "https://repo.almalinux.org/almalinux/9.4/isos/x86_64/AlmaLinux-9.4-x86_64-dvd.iso"
          },
          {
            "version": "9.3",
            "url": "https://vault.almalinux.org/9.3/isos/x86_64/AlmaLinux-9.3-x86_64-dvd.iso"
          }
        ],
        "nok": []
      }
    },
    {
      "name": "alpine",
      "source": "current",
      "releases": {
        "latest": {
          "version": "3.20",
          "date": "2024/07/22",
          "url": "https://dl-cdn.alpinelinux.org/alpine/v3.20/releases/x86_64/alpine-standard-3.20.2-x86_64.iso"
        },
        "all": [
          "3.20",
          "3.19",
          "3.18",
          "3.17",
          "3.16",
          "3.15",
          "3.14",
          "3.13",
          "3.12",
          "3.11",
          "3.10",
          "3.9",
          "3.8",
          "3.7",
          "3.6",
          "3.5",
          "3.4",
          "3.3",
          "3.2",
          "3.1",
          "3.0"
        ],
        "valid": [
          {
            "version": "3.20",
            "url": "https://dl-cdn.alpinelinux.org/alpine/v3.20/releases/x86_64/alpine-standard-3.20.2-x86_64.iso"
          },
          {
            "version": "3.19",
            "url": "https://dl-cdn.alpinelinux.org/alpine/v3.19/releases/x86_64/alpine-standard-3.19.3-x86_64.iso"
          }
        ],
        "nok": []
      }
    },
    {
      "name": "arch",
      "source": "current",
      "releases": {
        "latest": {
          "version": "2024.08.01",
          "date": "2024/08/01",
          "url": "https://geo.mirror.pkgbuild.com/iso/2024.08.01/archlinux-2024.08.01-x86_64.iso"
        },
        "all": [
          "2024.08.01",
          "2024.07.01",
          "2024.06.01"
        ],
        "valid": [
          {
            "version": "2024.08.01",
            "url": "https://geo.mirror.pkgbuild.com/iso/2024.08.01/archlinux-2024.08.01-x86_64.iso"
          },
          {
            "version": "2024.07.01",
            "url": "https://geo.mirror.pkgbuild.com/iso/2024.07.01/archlinux-2024.07.01-x86_64.iso"
          }
        ],
        "nok": []
      }
    },
    {
      "name": "centos",
      "source": "current",
      "releases": {
        "latest": {
          "version": "10-stream",
          "date": "2024/08/14",
          "url": "https://mirror.in2p3.fr/pub/linux/centos-stream/10-stream/BaseOS/x86_64/iso/CentOS-Stream-10-latest-x86_64-dvd1.iso"
        },
        "all": [
          "10-stream",
          "9-stream",
          "8.5.2111",
          "8.4.2105",
          "8.3.2011",
          "8.2.2004",
          "8.1.1911",
          "8.0.1905",
          "8",
          "7.9.2009",
          "7.8.2003",
          "7.7.1908",
          "7.6.1810",
          "7.5.1804",
          "7.4.1708",
          "7.3.1611",
          "7.2.1511",
          "7.1.1503",
          "7.0.1406",
          "7",
          "6.10",
          "6.9",
          "6.8",
          "6.7",
          "6.6",
          "6.5",
          "6.4",
          "6.3",
          "6.2",
          "6.1",
          "6.0",
          "6",
          "5.11",
          "5.10",
          "5.9",
          "5.8",
          "5.7",
          "5.6",
          "5.5",
          "5.4",
          "5.3",
          "5.2",
          "5.1",
          "5.0",
          "5",
          "4.9",
          "4.8",
          "4.7",
          "4.6",
          "4.5",
          "4.4",
          "4.3",
          "4.2",
          "4.1",
          "4.0",
          "4",
          "3.9",
          "3.8",
          "3.7",
          "3.6",
          "3.5",
          "3.4",
          "3.3",
          "3.2",
          "3.1",
          "3.0",
          "3",
          "2.1",
          "2"
        ],
        "valid": [
          {
            "version": "10-stream",
            "url": "https://mirror.in2p3.fr/pub/linux/centos-stream/10-stream/BaseOS/x86_64/iso/CentOS-Stream-10-latest-x86_64-dvd1.iso"
          },
          {
            "version": "9-stream",
            "url": "https://mirror.in2p3.fr/pub/linux/centos-stream/9-stream/BaseOS/x86_64/iso/CentOS-Stream-9-latest-x86_64-dvd1.iso"
          }
        ],
        "nok": []
      }
    },
    {
      "name": "clonezilla",
      "source": "current",
      "releases": {
        "latest": {
          "version": "3.1.3-16",
          "date": "2024/07/15",
          "url": "https://sourceforge.net/projects/clonezilla/files/clonezilla_live_stable/3.1.3-16/clonezilla-live-3.1.3-16-amd64.iso"
        },
        "all": [
          "3.1.3-16",
          "3.1.3-11",
          "3.1.2-22",
          "3.1.2-9",
          "3.1.1-27",
          "3.1.0-22",
          "3.0.3-22",
          "3.0.2-21",
          "3.0.1-8",
          "3.0.0-26",
          "2.8.1-12",
          "2.8.0-27",
          "2.7.3-19",
          "2.7.2-39",
          "2.7.2-38",
          "2.7.1-22",
          "2.7.0-10",
          "2.6.7-28",
          "2.6.6-15",
          "2.6.5-21",
          "2.6.4-10",
          "2.6.3-7",
          "2.6.2-15",
          "2.6.1-25",
          "2.6.0-37",
          "2.5.6-22",
          "2.5.6-21",
          "2.5.5-38",
          "2.5.2-31",
          "2.5.2-17",
          "2.5.0-25",
          "2.5.0-5",
          "2.4.9-17",
          "2.4.7-8",
          "2.4.6-25",
          "2.4.5-23",
          "2.4.5-20",
          "2.4.2-61",
          "2.4.2-32",
          "2.4.2-10",
          "2.3.2-22",
          "2.3.1-18",
          "2.2.4-12",
          "2.2.3-25",
          "2.2.3-10",
          "2.2.2-37",
          "2.2.2-32",
          ""
        ],
        "valid": [
          {
            "version": "3.1.3-16",
            "url": "https://sourceforge.net/projects/clonezilla/files/clonezilla_live_stable/3.1.3-16/clonezilla-live-3.1.3-16-amd64.iso"
          },
          {
            "version": "3.1.3-11",
            "url": "https://sourceforge.net/projects/clonezilla/files/clonezilla_live_stable/3.1.3-11/clonezilla-live-3.1.3-11-amd64.iso"
          }
        ],
        "nok": []
      }
    },
    {
      "name": "debian",
      "source": "current",
      "releases": {
        "latest": {
          "version": "12.6.0",
          "date": "2024/06/29",
          "url": "https://cdimage.debian.org/debian-cd/current/amd64/iso-dvd/debian-12.6.0-amd64-DVD-1.iso"
        },
        "all": [
          "12.6.0",
          "12.5.0",
          "12.4.0",
          "12.3.0-NEVER-RELEASED",
          "12.2.0",
          "12.1.0",
          "12.0.0",
          "11.10.0",
          "11.9.0",
          "11.8.0",
          "11.7.0",
          "11.6.0",
          "11.5.0",
          "11.4.0",
          "11.3.0",
          "11.2.0",
          "11.1.0",
          "11.0.0",
          "10.13.0",
          "10.12.0",
          "10.11.0",
          "10.10.0",
          "10.9.0",
          "10.8.0",
          "10.7.0",
          "10.6.0",
          "10.5.0",
          "10.4.0",
          "10.3.0",
          "10.2.0",
          "10.1.0",
          "10.0.0",
          "9.13.0",
          "9.12.0",
          "9.11.0",
          "9.10.0-BROKEN_DO_NOT_USE",
          "9.9.0",
          "9.8.0",
          "9.7.0",
          "9.6.0",
          "9.5.0",
          "9.4.0",
          "9.3.0",
          "9.2.1",
          "9.2.0",
          "9.1.0",
          "9.0.0",
          "8.11.1",
          "8.11.0",
          "8.10.0",
          "8.9.0",
          "8.8.0",
          "8.7.1",
          "8.7.0",
          "8.6.0",
          "8.5.0",
          "8.4.0",
          "8.3.0",
          "8.2.0",
          "8.1.0",
          "8.0.0",
          "7.11.0",
          "7.10.0",
          "7.9.0",
          "7.8.0",
          "7.7.0",
          "7.6.0",
          "7.5.0",
          "7.4.0",
          "7.3.0",
          "7.2.0",
          "7.1.0",
          "7.0.0",
          "6.0.10",
          "6.0.9",
          "6.0.8",
          "6.0.7",
          "6.0.6",
          "6.0.5",
          "6.0.4",
          "6.0.3",
          "6.0.2.1",
          "6.0.1a",
          "6.0.1",
          "6.0.0",
          "5.0.10",
          "5.0.9",
          "5.0.8",
          "5.0.7",
          "5.0.6",
          "5.0.5",
          "5.0.4",
          "5.0.3",
          "5.0.2a",
          "5.0.2",
          "5.0.1",
          "5.0.0",
          "4.0_r9",
          "4.0_r8",
          "4.0_r7",
          "4.0_r6",
          "4.0_r5",
          "4.0_r4a",
          "4.0_r4",
          "4.0_r3",
          "4.0_r2",
          "4.0_r1",
          "4.0_r0",
          "3.1_r8",
          "3.1_r7",
          "3.1_r6a",
          "3.1_r6",
          "3.1_r5",
          "3.1_r4",
          "3.1_r3",
          "3.1_r2",
          "3.1_r1",
          "3.1_r0a",
          "3.1_r0",
          "3.0_r6",
          "3.0_r5",
          "3.0_r4",
          "3.0_r3",
          "3.0_r2",
          "3.0_r1",
          "3.0_r0"
        ],
        "valid": [
          {
            "version": "12.6.0",
            "url": "https://cdimage.debian.org/debian-cd/current/amd64/iso-dvd/debian-12.6.0-amd64-DVD-1.iso"
          },
          {
            "version": "12.5.0",
            "url": "https://cdimage.debian.org/mirror/cdimage/archive/12.5.0/amd64/iso-dvd/debian-12.5.0-amd64-DVD-1.iso"
          }
        ],
        "nok": []
      }
    },
    {
      "name": "fedora",
      "source": "current",
      "releases": {
        "latest": {
          "version": "40",
          "date": "2024/04/15",
          "url": "https://mirror.in2p3.fr/pub/fedora/linux/releases/40/Workstation/x86_64/iso/Fedora-Workstation-Live-x86_64-40-1.14.iso"
        },
        "all": [
          "40",
          "39",
          "38",
          "37",
          "36",
          "35",
          "34",
          "33",
          "32",
          "31",
          "30",
          "29",
          "28",
          "27",
          "26",
          "25",
          "24",
          "23",
          "22",
          "21",
          "20",
          "19",
          "18",
          "17",
          "16",
          "15",
          "14",
          "13",
          "12",
          "11",
          "10",
          "9",
          "8",
          "7"
        ],
        "valid": [
          {
            "version": "40",
            "url": "https://mirror.in2p3.fr/pub/fedora/linux/releases/40/Workstation/x86_64/iso/Fedora-Workstation-Live-x86_64-40-1.14.iso"
          },
          {
            "version": "39",
            "url": "https://mirror.in2p3.fr/pub/fedora/linux/releases/39/Workstation/x86_64/iso/Fedora-Workstation-Live-x86_64-39-1.5.iso"
          }
        ],
        "nok": []
      }
    },
    {
      "name": "freebsd",
      "source": "current",
      "releases": {
        "latest": {
          "version": "14.1",
          "date": "2024/05/31",
          "url": "https://download.freebsd.org/releases/ISO-IMAGES/14.1/FreeBSD-14.1-RELEASE-amd64-dvd1.iso"
        },
        "all": [
          "14.1",
          "14.0",
          "13.4",
          "13.3"
        ],
        "valid": [
          {
            "version": "14.1",
            "url": "https://download.freebsd.org/releases/ISO-IMAGES/14.1/FreeBSD-14.1-RELEASE-amd64-dvd1.iso"
          },
          {
            "version": "14.0",
            "url": "https://download.freebsd.org/releases/ISO-IMAGES/14.0/FreeBSD-14.0-RELEASE-amd64-dvd1.iso"
          }
        ],
        "nok": []
      }
    },
    {
      "name": "kaisen",
      "source": "current",
      "releases": {
        "latest": {
          "version": "2.3",
          "date": "2023/05/31",
          "url": "https://iso.kaisenlinux.org/rolling/kaisenlinuxrolling2.3-amd64-MATE.iso"
        },
        "all": [
          "3.0RC3",
          "2.3",
          "2.2",
          "2.1",
          "2.0"
        ],
        "valid": [
          {
            "version": "2.3",
            "url": "https://iso.kaisenlinux.org/rolling/kaisenlinuxrolling2.3-amd64-MATE.iso"
          },
          {
            "version": "2.2",
            "url": "https://iso.kaisenlinux.org/rolling/kaisenlinuxrolling2.2-amd64-MATE.iso"
          }
        ],
        "nok": [
          {
            "version": "3.0RC3",
            "url": "https://iso.kaisenlinux.org/rolling/kaisenlinuxrolling3.0RC3-amd64-MATE.iso"
          }
        ]
      }
    },
    {
      "name": "kali",
      "source": "current",
      "releases": {
        "latest": {
          "version": "2024.2",
          "date": "2024/05/27",
          "url": "https://cdimage.kali.org/kali-2024.2/kali-linux-2024.2-installer-amd64.iso"
        },
        "all": [
          "2024.2",
          "2024.1"
        ],
        "valid": [
          {
            "version": "2024.2",
            "url": "https://cdimage.kali.org/kali-2024.2/kali-linux-2024.2-installer-amd64.iso"
          },
          {
            "version": "2024.1",
            "url": "https://cdimage.kali.org/kali-2024.1/kali-linux-2024.1-installer-amd64.iso"
          }
        ],
        "nok": []
      }
    },
    {
      "name": "mageia",
      "source": "current",
      "releases": {
        "latest": {
          "version": "",
          "date": "",
          "url": ""
        },
        "all": [
          "9",
          "8"
        ],
        "valid": [],
        "nok": [
          {
            "version": "9",
            "url": "https://mirrors.kernel.org/mageia/iso/9/Mageia-9-x86_64/NaN"
          },
          {
            "version": "8",
            "url": "https://mirrors.kernel.org/mageia/iso/8/Mageia-8-x86_64/NaN"
          }
        ]
      }
    },
    {
      "name": "manjaro",
      "source": "current",
      "releases": {
        "latest": {
          "version": "24.0.5",
          "date": "rolling",
          "url": "https://download.manjaro.org/kde/24.0.5/manjaro-kde-24.0.5-240730-linux69.iso"
        },
        "all": [
          "24.0.5"
        ],
        "valid": [
          {
            "version": "24.0.5",
            "url": "https://download.manjaro.org/kde/24.0.5/manjaro-kde-24.0.5-240730-linux69.iso"
          }
        ],
        "nok": []
      }
    },
    {
      "name": "mint",
      "source": "current",
      "releases": {
        "latest": {
          "version": "22",
          "date": "2024/07/21",
          "url": "https://mirrors.edge.kernel.org/linuxmint/stable/22/linuxmint-22-cinnamon-64bit.iso"
        },
        "all": [
          "22",
          "21.3",
          "21.2",
          "21.1",
          "21",
          "20.3",
          "20.2",
          "20.1",
          "20",
          "19.3"
        ],
        "valid": [
          {
            "version": "22",
            "url": "https://mirrors.edge.kernel.org/linuxmint/stable/22/linuxmint-22-cinnamon-64bit.iso"
          },
          {
            "version": "21.3",
            "url": "https://mirrors.edge.kernel.org/linuxmint/stable/21.3/linuxmint-21.3-cinnamon-64bit.iso"
          }
        ],
        "nok": []
      }
    },
    {
      "name": "mx",
      "source": "current",
      "releases": {
        "latest": {
          "version": "23.3",
          "date": "2024/05/18",
          "url": "https://sourceforge.net/projects/mx-linux/files/Final/KDE/MX-23.3_KDE_x64.iso"
        },
        "all": [
          "23.3",
          "23.2",
          "23.1",
          "23",
          "21.3",
          "21.2.1",
          "21.1",
          "21",
          "19.4",
          "19.3",
          "19.2",
          "19.1",
          "19",
          "18.3",
          "18.2",
          "18.1",
          "18",
          "17.1",
          "17",
          "16.1",
          "16",
          "15",
          "",
          "",
          "",
          ""
        ],
        "valid": [
          {
            "version": "23.3",
            "url": "https://sourceforge.net/projects/mx-linux/files/Final/KDE/MX-23.3_KDE_x64.iso"
          },
          {
            "version": "23.2",
            "url": "https://sourceforge.net/projects/mx-linux/files/Old/MX-23.2/KDE/MX-23.2_KDE_x64.iso"
          }
        ],
        "nok": []
      }
    },
    {
      "name": "opensuse",
      "source": "current",
      "releases": {
        "latest": {
          "version": "15.6",
          "date": "2024/06/20",
          "url": "https://fr2.rpmfind.net/linux/opensuse/distribution/leap/15.6/iso/openSUSE-Leap-15.6-DVD-x86_64-Media.iso"
        },
        "all": [
          "16.0",
          "15.6",
          "15.5"
        ],
        "valid": [
          {
            "version": "15.6",
            "url": "https://fr2.rpmfind.net/linux/opensuse/distribution/leap/15.6/iso/openSUSE-Leap-15.6-DVD-x86_64-Media.iso"
          },
          {
            "version": "15.5",
            "url": "https://fr2.rpmfind.net/linux/opensuse/distribution/leap/15.5/iso/openSUSE-Leap-15.5-DVD-x86_64-Media.iso"
          }
        ],
        "nok": [
          {
            "version": "16.0",
            "url": "https://fr2.rpmfind.net/linux/opensuse/distribution/leap/16.0/iso/NaN"
          }
        ]
      }
    },
    {
      "name": "opnsense",
      "source": "current",
      "releases": {
        "latest": {
          "version": "24.7",
          "date": "2024/07/23",
          "url": "https://mirror.wdc1.us.leaseweb.net/opnsense/releases/24.7/OPNsense-24.7-dvd-amd64.iso.bz2"
        },
        "all": [
          "24.7",
          "24.1",
          "23.7",
          "23.1",
          "22.7",
          "22.1",
          "21.7",
          "21.1"
        ],
        "valid": [
          {
            "version": "24.7",
            "url": "https://mirror.wdc1.us.leaseweb.net/opnsense/releases/24.7/OPNsense-24.7-dvd-amd64.iso.bz2"
          },
          {
            "version": "24.1",
            "url": "https://mirror.wdc1.us.leaseweb.net/opnsense/releases/24.1/OPNsense-24.1-dvd-amd64.iso.bz2"
          }
        ],
        "nok": []
      }
    },
    {
      "name": "parrot",
      "source": "current",
      "releases": {
        "latest": {
          "version": "6.1",
          "date": "2024/06/03",
          "url": "https://deb.parrot.sh/parrot/iso/6.1/Parrot-security-6.1_amd64.iso"
        },
        "all": [
          "6.1",
          "6.0",
          "5.3",
          "5.2-1",
          "5.2",
          "5.1.2",
          "5.1.1",
          "5.1",
          "5.0.1",
          "5.0",
          "4.11.3",
          "4.11.2",
          "4.11.1",
          "4.11",
          "4.10",
          "4.9.1",
          "4.9",
          "4.8",
          "4.7",
          "4.6"
        ],
        "valid": [
          {
            "version": "6.1",
            "url": "https://deb.parrot.sh/parrot/iso/6.1/Parrot-security-6.1_amd64.iso"
          }
        ],
        "nok": [
          {
            "version": "6.0",
            "url": "https://deb.parrot.sh/parrot/iso/6.0/NaN"
          },
          {
            "version": "5.3",
            "url": "https://deb.parrot.sh/parrot/iso/5.3/NaN"
          },
          {
            "version": "5.2-1",
            "url": "https://deb.parrot.sh/parrot/iso/5.2-1/NaN"
          },
          {
            "version": "5.2",
            "url": "https://deb.parrot.sh/parrot/iso/5.2/NaN"
          },
          {
            "version": "5.1.2",
            "url": "https://deb.parrot.sh/parrot/iso/5.1.2/NaN"
          },
          {
            "version": "5.1.1",
            "url": "https://deb.parrot.sh/parrot/iso/5.1.1/NaN"
          },
          {
            "version": "5.1",
            "url": "https://deb.parrot.sh/parrot/iso/5.1/NaN"
          },
          {
            "version": "5.0.1",
            "url": "https://deb.parrot.sh/parrot/iso/5.0.1/NaN"
          },
          {
            "version": "5.0",
            "url": "https://deb.parrot.sh/parrot/iso/5.0/NaN"
          },
          {
            "version": "4.11.3",
            "url": "https://deb.parrot.sh/parrot/iso/4.11.3/NaN"
          },
          {
            "version": "4.11.2",
            "url": "https://deb.parrot.sh/parrot/iso/4.11.2/NaN"
          },
          {
            "version": "4.11.1",
            "url": "https://deb.parrot.sh/parrot/iso/4.11.1/NaN"
          },
          {
            "version": "4.11",
            "url": "https://deb.parrot.sh/parrot/iso/4.11/NaN"
          },
          {
            "version": "4.10",
            "url": "https://deb.parrot.sh/parrot/iso/4.10/NaN"
          },
          {
            "version": "4.9.1",
            "url": "https://deb.parrot.sh/parrot/iso/4.9.1/NaN"
          },
          {
            "version": "4.9",
            "url": "https://deb.parrot.sh/parrot/iso/4.9/NaN"
          },
          {
            "version": "4.8",
            "url": "https://deb.parrot.sh/parrot/iso/4.8/NaN"
          },
          {
            "version": "4.7",
            "url": "https://deb.parrot.sh/parrot/iso/4.7/NaN"
          },
          {
            "version": "4.6",
            "url": "https://deb.parrot.sh/parrot/iso/4.6/NaN"
          }
        ]
      }
    },
    {
      "name": "pfsense",
      "source": "current",
      "releases": {
        "latest": {
          "version": "2.7.2",
          "date": "2023/12/08",
          "url": "https://atxfiles.netgate.com/mirror/downloads/pfSense-CE-2.7.2-RELEASE-amd64.iso.gz"
        },
        "all": [
          "2.7.2",
          "2.7.1",
          "2.7.0",
          "2.6.0"
        ],
        "valid": [
          {
            "version": "2.7.2",
            "url": "https://atxfiles.netgate.com/mirror/downloads/pfSense-CE-2.7.2-RELEASE-amd64.iso.gz"
          },
          {
            "version": "2.7.1",
            "url": "https://atxfiles.netgate.com/mirror/downloads/pfSense-CE-2.7.1-RELEASE-amd64.iso.gz"
          }
        ],
        "nok": []
      }
    },
    {
      "name": "proxmox",
      "source": "current",
      "releases": {
        "latest": {
          "version": "8.2-1",
          "date": "2024/04/24",
          "url": "https://enterprise.proxmox.com/iso/proxmox-ve_8.2-1.iso"
        },
        "all": [
          "8.2-1",
          "8.1-2",
          "7.4-1",
          "6.4-1",
          "5.4-1",
          "4.4-eb2d6f1e-2",
          "3.4-102d4547-6"
        ],
        "valid": [
          {
            "version": "8.2-1",
            "url": "https://enterprise.proxmox.com/iso/proxmox-ve_8.2-1.iso"
          },
          {
            "version": "8.1-2",
            "url": "https://enterprise.proxmox.com/iso/proxmox-ve_8.1-2.iso"
          }
        ],
        "nok": []
      }
    },
    {
      "name": "slackware",
      "source": "current",
      "releases": {
        "latest": {
          "version": "15.0",
          "date": "2022/02/03",
          "url": "https://mirrors.slackware.com/slackware/slackware-iso/slackware64-15.0-iso/slackware64-15.0-install-dvd.iso"
        },
        "all": [
          "15.0",
          "14.2",
          "14.1",
          "14.0",
          "13.37",
          "13.1",
          "13.0"
        ],
        "valid": [
          {
            "version": "15.0",
            "url": "https://mirrors.slackware.com/slackware/slackware-iso/slackware64-15.0-iso/slackware64-15.0-install-dvd.iso"
          },
          {
            "version": "14.2",
            "url": "https://mirrors.slackware.com/slackware/slackware-iso/slackware64-14.2-iso/slackware64-14.2-install-dvd.iso"
          }
        ],
        "nok": []
      }
    },
    {
      "name": "ubuntu",
      "source": "current",
      "releases": {
        "latest": {
          "version": "24.04",
          "date": "2024/04/24",
          "url": "https://releases.ubuntu.com/24.04/ubuntu-24.04-desktop-amd64.iso"
        },
        "all": [
          "24.04",
          "23.10.1",
          "23.10",
          "22.04.4",
          "22.04",
          "20.04.6",
          "20.04",
          "18.04.6",
          "18.04",
          "16.04.7",
          "16.04",
          "14.04.6",
          "14.04"
        ],
        "valid": [
          {
            "version": "24.04",
            "url": "https://releases.ubuntu.com/24.04/ubuntu-24.04-desktop-amd64.iso"
          },
          {
            "version": "23.10.1",
            "url": "https://releases.ubuntu.com/23.10.1/ubuntu-23.10.1-desktop-amd64.iso"
          }
        ],
        "nok": []
      }
    },
    {
      "name": "xcpng",
      "source": "current",
      "releases": {
        "latest": {
          "version": "8.2",
          "date": "2022/02/25",
          "url": "https://updates.xcp-ng.org/isos/8.2/xcp-ng-8.2.1.iso"
        },
        "all": [
          "8.3",
          "8.2",
          "8.1",
          "8.0",
          "7.6",
          "7.5"
        ],
        "valid": [
          {
            "version": "8.2",
            "url": "https://updates.xcp-ng.org/isos/8.2/xcp-ng-8.2.1.iso"
          },
          {
            "version": "8.1",
            "url": "https://updates.xcp-ng.org/isos/8.1/xcp-ng-8.1.0-2.iso"
          }
        ],
        "nok": [
          {
            "version": "8.3",
            "url": "https://updates.xcp-ng.org/isos/8.3/xcp-ng-8.3.0-rc1.iso"
          }
        ]
      }
    }
  ]
}
