{
	"revision": "2025-03-07T19:03:28+0100",
	"distro": [
		{
			"name": "alma",
			"fullname": "AlmaLinux OS",
			"source": "current",
			"releases": {
				"latest": {
					"version": "9.5",
					"date": "2024-11-13",
					"url": "https://repo.almalinux.org/almalinux/9.5/isos/x86_64/AlmaLinux-9.5-x86_64-dvd.iso"
				},
				"all": [
					"10.0-beta",
					"9.5",
					"9.4",
					"9.3",
					"9.2",
					"9.1",
					"9.0",
					"9",
					"8.10",
					"8.9",
					"8.8",
					"8.7",
					"8.6",
					"8.5",
					"8.4",
					"8.3",
					"8"
				],
				"valid": [
					{
						"version": "9.5",
						"url": "https://repo.almalinux.org/almalinux/9.5/isos/x86_64/AlmaLinux-9.5-x86_64-dvd.iso"
					},
					{
						"version": "9.4",
						"url": "https://repo.almalinux.org/almalinux/9.4/isos/x86_64/AlmaLinux-9.4-x86_64-dvd.iso"
					},
					{
						"version": "9.3",
						"url": "https://vault.almalinux.org/9.3/isos/x86_64/AlmaLinux-9.3-x86_64-dvd.iso"
					}
				],
				"nok": [
					{
						"version": "10.0-beta",
						"url": "https://repo.almalinux.org/almalinux/10.0-beta/isos/x86_64/AlmaLinux-10.0-beta-1-x86_64-dvd.iso"
					}
				]
			}
		},
		{
			"name": "alpine",
			"fullname": "Alpine Linux",
			"source": "current",
			"releases": {
				"latest": {
					"version": "3.21",
					"date": "2025-02-13",
					"url": "https://dl-cdn.alpinelinux.org/alpine/v3.21/releases/x86_64/alpine-standard-3.21.3-x86_64.iso"
				},
				"all": [
					"3.21",
					"3.20",
					"3.19",
					"3.18",
					"3.17",
					"3.16",
					"3.15",
					"3.14",
					"3.13",
					"3.12",
					"3.11",
					"3.10",
					"3.9",
					"3.8",
					"3.7",
					"3.6",
					"3.5",
					"3.4",
					"3.3",
					"3.2",
					"3.1",
					"3.0"
				],
				"valid": [
					{
						"version": "3.21",
						"url": "https://dl-cdn.alpinelinux.org/alpine/v3.21/releases/x86_64/alpine-standard-3.21.3-x86_64.iso"
					},
					{
						"version": "3.20",
						"url": "https://dl-cdn.alpinelinux.org/alpine/v3.20/releases/x86_64/alpine-standard-3.20.6-x86_64.iso"
					},
					{
						"version": "3.19",
						"url": "https://dl-cdn.alpinelinux.org/alpine/v3.19/releases/x86_64/alpine-standard-3.19.7-x86_64.iso"
					}
				],
				"nok": []
			}
		},
		{
			"name": "arch",
			"fullname": "Arch Linux",
			"source": "current",
			"releases": {
				"latest": {
					"version": "2025.03.01",
					"date": "2025-03-01",
					"url": "https://geo.mirror.pkgbuild.com/iso/2025.03.01/archlinux-2025.03.01-x86_64.iso"
				},
				"all": [
					"2025.03.01",
					"2025.02.01",
					"2025.01.01"
				],
				"valid": [
					{
						"version": "2025.03.01",
						"url": "https://geo.mirror.pkgbuild.com/iso/2025.03.01/archlinux-2025.03.01-x86_64.iso"
					},
					{
						"version": "2025.02.01",
						"url": "https://geo.mirror.pkgbuild.com/iso/2025.02.01/archlinux-2025.02.01-x86_64.iso"
					},
					{
						"version": "2025.01.01",
						"url": "https://geo.mirror.pkgbuild.com/iso/2025.01.01/archlinux-2025.01.01-x86_64.iso"
					}
				],
				"nok": []
			}
		},
		{
			"name": "centos",
			"fullname": "CentOS Stream",
			"source": "current",
			"releases": {
				"latest": {
					"version": "10-stream",
					"date": "2025-03-03",
					"url": "https://mirror.in2p3.fr/pub/linux/centos-stream/10-stream/BaseOS/x86_64/iso/CentOS-Stream-10-latest-x86_64-dvd1.iso"
				},
				"all": [
					"10-stream",
					"9-stream",
					"8.5.2111",
					"8.4.2105",
					"8.3.2011",
					"8.2.2004",
					"8.1.1911",
					"8.0.1905",
					"8",
					"7.9.2009",
					"7.8.2003",
					"7.7.1908",
					"7.6.1810",
					"7.5.1804",
					"7.4.1708",
					"7.3.1611",
					"7.2.1511",
					"7.1.1503",
					"7.0.1406",
					"7",
					"6.10",
					"6.9",
					"6.8",
					"6.7",
					"6.6",
					"6.5",
					"6.4",
					"6.3",
					"6.2",
					"6.1",
					"6.0",
					"6",
					"5.11",
					"5.10",
					"5.9",
					"5.8",
					"5.7",
					"5.6",
					"5.5",
					"5.4",
					"5.3",
					"5.2",
					"5.1",
					"5.0",
					"5",
					"4.9",
					"4.8",
					"4.7",
					"4.6",
					"4.5",
					"4.4",
					"4.3",
					"4.2",
					"4.1",
					"4.0",
					"4",
					"3.9",
					"3.8",
					"3.7",
					"3.6",
					"3.5",
					"3.4",
					"3.3",
					"3.2",
					"3.1",
					"3.0",
					"3",
					"2.1",
					"2"
				],
				"valid": [
					{
						"version": "10-stream",
						"url": "https://mirror.in2p3.fr/pub/linux/centos-stream/10-stream/BaseOS/x86_64/iso/CentOS-Stream-10-latest-x86_64-dvd1.iso"
					},
					{
						"version": "9-stream",
						"url": "https://mirror.in2p3.fr/pub/linux/centos-stream/9-stream/BaseOS/x86_64/iso/CentOS-Stream-9-latest-x86_64-dvd1.iso"
					},
					{
						"version": "8.5.2111",
						"url": "https://mirror.in2p3.fr/pub/linux/centos-vault/8.5.2111/isos/x86_64/CentOS-8.5.2111-x86_64-dvd1.iso"
					}
				],
				"nok": []
			}
		},
		{
			"name": "clonezilla",
			"fullname": "Clonezilla",
			"source": "current",
			"releases": {
				"latest": {
					"version": "3.2.1-9",
					"date": "2025-03-03",
					"url": "https://sourceforge.net/projects/clonezilla/files/clonezilla_live_stable/3.2.1-9/clonezilla-live-3.2.1-9-amd64.iso"
				},
				"all": [
					"3.2.1-9",
					"3.2.0-5",
					"3.1.3-16",
					"3.1.3-11",
					"3.1.2-22",
					"3.1.2-9",
					"3.1.1-27",
					"3.1.0-22",
					"3.0.3-22",
					"3.0.2-21",
					"3.0.1-8",
					"3.0.0-26",
					"2.8.1-12",
					"2.8.0-27",
					"2.7.3-19",
					"2.7.2-39",
					"2.7.2-38",
					"2.7.1-22",
					"2.7.0-10",
					"2.6.7-28",
					"2.6.6-15",
					"2.6.5-21",
					"2.6.4-10",
					"2.6.3-7",
					"2.6.2-15",
					"2.6.1-25",
					"2.6.0-37",
					"2.5.6-22",
					"2.5.6-21",
					"2.5.5-38",
					"2.5.2-31",
					"2.5.2-17",
					"2.5.0-25",
					"2.5.0-5",
					"2.4.9-17",
					"2.4.7-8",
					"2.4.6-25",
					"2.4.5-23",
					"2.4.5-20",
					"2.4.2-61",
					"2.4.2-32",
					"2.4.2-10",
					"2.3.2-22",
					"2.3.1-18",
					"2.2.4-12",
					"2.2.3-25",
					"2.2.3-10",
					"2.2.2-37",
					"2.2.2-32",
					""
				],
				"valid": [
					{
						"version": "3.2.1-9",
						"url": "https://sourceforge.net/projects/clonezilla/files/clonezilla_live_stable/3.2.1-9/clonezilla-live-3.2.1-9-amd64.iso"
					},
					{
						"version": "3.2.0-5",
						"url": "https://sourceforge.net/projects/clonezilla/files/clonezilla_live_stable/3.2.0-5/clonezilla-live-3.2.0-5-amd64.iso"
					},
					{
						"version": "3.1.3-16",
						"url": "https://sourceforge.net/projects/clonezilla/files/clonezilla_live_stable/3.1.3-16/clonezilla-live-3.1.3-16-amd64.iso"
					}
				],
				"nok": []
			}
		},
		{
			"name": "debian",
			"fullname": "Debian",
			"source": "current",
			"releases": {
				"latest": {
					"version": "12.9.0",
					"date": "2025-01-11",
					"url": "https://cdimage.debian.org/debian-cd/current/amd64/iso-dvd/debian-12.9.0-amd64-DVD-1.iso"
				},
				"all": [
					"12.9.0",
					"12.8.0",
					"12.7.0",
					"12.6.0",
					"12.5.0",
					"12.4.0",
					"12.3.0-NEVER-RELEASED",
					"12.2.0",
					"12.1.0",
					"12.0.0",
					"11.11.0",
					"11.10.0",
					"11.9.0",
					"11.8.0",
					"11.7.0",
					"11.6.0",
					"11.5.0",
					"11.4.0",
					"11.3.0",
					"11.2.0",
					"11.1.0",
					"11.0.0",
					"10.13.0",
					"10.12.0",
					"10.11.0",
					"10.10.0",
					"10.9.0",
					"10.8.0",
					"10.7.0",
					"10.6.0",
					"10.5.0",
					"10.4.0",
					"10.3.0",
					"10.2.0",
					"10.1.0",
					"10.0.0",
					"9.13.0",
					"9.12.0",
					"9.11.0",
					"9.10.0-BROKEN_DO_NOT_USE",
					"9.9.0",
					"9.8.0",
					"9.7.0",
					"9.6.0",
					"9.5.0",
					"9.4.0",
					"9.3.0",
					"9.2.1",
					"9.2.0",
					"9.1.0",
					"9.0.0",
					"8.11.1",
					"8.11.0",
					"8.10.0",
					"8.9.0",
					"8.8.0",
					"8.7.1",
					"8.7.0",
					"8.6.0",
					"8.5.0",
					"8.4.0",
					"8.3.0",
					"8.2.0",
					"8.1.0",
					"8.0.0",
					"7.11.0",
					"7.10.0",
					"7.9.0",
					"7.8.0",
					"7.7.0",
					"7.6.0",
					"7.5.0",
					"7.4.0",
					"7.3.0",
					"7.2.0",
					"7.1.0",
					"7.0.0",
					"6.0.10",
					"6.0.9",
					"6.0.8",
					"6.0.7",
					"6.0.6",
					"6.0.5",
					"6.0.4",
					"6.0.3",
					"6.0.2.1",
					"6.0.1a",
					"6.0.1",
					"6.0.0",
					"5.0.10",
					"5.0.9",
					"5.0.8",
					"5.0.7",
					"5.0.6",
					"5.0.5",
					"5.0.4",
					"5.0.3",
					"5.0.2a",
					"5.0.2",
					"5.0.1",
					"5.0.0",
					"4.0_r9",
					"4.0_r8",
					"4.0_r7",
					"4.0_r6",
					"4.0_r5",
					"4.0_r4a",
					"4.0_r4",
					"4.0_r3",
					"4.0_r2",
					"4.0_r1",
					"4.0_r0",
					"3.1_r8",
					"3.1_r7",
					"3.1_r6a",
					"3.1_r6",
					"3.1_r5",
					"3.1_r4",
					"3.1_r3",
					"3.1_r2",
					"3.1_r1",
					"3.1_r0a",
					"3.1_r0",
					"3.0_r6",
					"3.0_r5",
					"3.0_r4",
					"3.0_r3",
					"3.0_r2",
					"3.0_r1",
					"3.0_r0"
				],
				"valid": [
					{
						"version": "12.9.0",
						"url": "https://cdimage.debian.org/debian-cd/current/amd64/iso-dvd/debian-12.9.0-amd64-DVD-1.iso"
					},
					{
						"version": "12.8.0",
						"url": "https://cdimage.debian.org/mirror/cdimage/archive/12.8.0/amd64/iso-dvd/debian-12.8.0-amd64-DVD-1.iso"
					},
					{
						"version": "12.7.0",
						"url": "https://cdimage.debian.org/mirror/cdimage/archive/12.7.0/amd64/iso-dvd/debian-12.7.0-amd64-DVD-1.iso"
					}
				],
				"nok": []
			}
		},
		{
			"name": "fedora",
			"fullname": "Fedora Linux",
			"source": "current",
			"releases": {
				"latest": {
					"version": "41",
					"date": "2024-10-24",
					"url": "https://mirror.in2p3.fr/pub/fedora/linux/releases/41/Workstation/x86_64/iso/Fedora-Workstation-Live-x86_64-41-1.4.iso"
				},
				"all": [
					"41",
					"40",
					"39",
					"38",
					"37",
					"36",
					"35",
					"34",
					"33",
					"32",
					"31",
					"30",
					"29",
					"28",
					"27",
					"26",
					"25",
					"24",
					"23",
					"22",
					"21",
					"20",
					"19",
					"18",
					"17",
					"16",
					"15",
					"14",
					"13",
					"12",
					"11",
					"10",
					"9",
					"8",
					"7"
				],
				"valid": [
					{
						"version": "41",
						"url": "https://mirror.in2p3.fr/pub/fedora/linux/releases/41/Workstation/x86_64/iso/Fedora-Workstation-Live-x86_64-41-1.4.iso"
					},
					{
						"version": "40",
						"url": "https://mirror.in2p3.fr/pub/fedora/linux/releases/40/Workstation/x86_64/iso/Fedora-Workstation-Live-x86_64-40-1.14.iso"
					},
					{
						"version": "39",
						"url": "https://mirror.in2p3.fr/pub/fedora/linux/releases/39/Workstation/x86_64/iso/Fedora-Workstation-Live-x86_64-39-1.5.iso"
					}
				],
				"nok": []
			}
		},
		{
			"name": "freebsd",
			"fullname": "FreeBSD",
			"source": "current",
			"releases": {
				"latest": {
					"version": "14.2",
					"date": "2024-11-29",
					"url": "https://download.freebsd.org/releases/ISO-IMAGES/14.2/FreeBSD-14.2-RELEASE-amd64-dvd1.iso"
				},
				"all": [
					"14.2",
					"14.1",
					"13.5",
					"13.4",
					"13.3"
				],
				"valid": [
					{
						"version": "14.2",
						"url": "https://download.freebsd.org/releases/ISO-IMAGES/14.2/FreeBSD-14.2-RELEASE-amd64-dvd1.iso"
					},
					{
						"version": "14.1",
						"url": "https://download.freebsd.org/releases/ISO-IMAGES/14.1/FreeBSD-14.1-RELEASE-amd64-dvd1.iso"
					},
					{
						"version": "13.5",
						"url": "https://download.freebsd.org/releases/ISO-IMAGES/13.5/FreeBSD-13.5-RELEASE-amd64-dvd1.iso"
					}
				],
				"nok": []
			}
		},
		{
			"name": "kaisen",
			"fullname": "Kaisen Linux",
			"source": "current",
			"releases": {
				"latest": {
					"version": "2.3",
					"date": "2023-05-31",
					"url": "https://iso.kaisenlinux.org/rolling/kaisenlinuxrolling2.3-amd64-MATE.iso"
				},
				"all": [
					"3.0RC3",
					"2.3",
					"2.2",
					"2.1",
					"2.0"
				],
				"valid": [
					{
						"version": "2.3",
						"url": "https://iso.kaisenlinux.org/rolling/kaisenlinuxrolling2.3-amd64-MATE.iso"
					},
					{
						"version": "2.2",
						"url": "https://iso.kaisenlinux.org/rolling/kaisenlinuxrolling2.2-amd64-MATE.iso"
					},
					{
						"version": "2.1",
						"url": "https://iso.kaisenlinux.org/rolling/kaisenlinuxrolling2.1-amd64-MATE.iso"
					}
				],
				"nok": [
					{
						"version": "3.0RC3",
						"url": "https://iso.kaisenlinux.org/rolling/kaisenlinuxrolling3.0RC3-amd64-MATE.iso"
					}
				]
			}
		},
		{
			"name": "kali",
			"fullname": "Kali Linux",
			"source": "current",
			"releases": {
				"latest": {
					"version": "2025.1a",
					"date": "2025-03-07",
					"url": "https://cdimage.kali.org/kali-2025.1a/kali-linux-2025.1a-installer-amd64.iso"
				},
				"all": [
					"2025.1a",
					"2024.4"
				],
				"valid": [
					{
						"version": "2025.1a",
						"url": "https://cdimage.kali.org/kali-2025.1a/kali-linux-2025.1a-installer-amd64.iso"
					},
					{
						"version": "2024.4",
						"url": "https://cdimage.kali.org/kali-2024.4/kali-linux-2024.4-installer-amd64.iso"
					}
				],
				"nok": []
			}
		},
		{
			"name": "libreelec",
			"fullname": "LibreELEC",
			"source": "current",
			"releases": {
				"latest": {
					"version": "12.0",
					"date": "2025-01-01",
					"url": "https://releases.libreelec.tv/LibreELEC-Generic.x86_64-12.0.2.img.gz"
				},
				"all": [
					"12.0",
					"11.0",
					"10.0",
					"9.2"
				],
				"valid": [
					{
						"version": "12.0",
						"url": "https://releases.libreelec.tv/LibreELEC-Generic.x86_64-12.0.2.img.gz"
					},
					{
						"version": "11.0",
						"url": "https://releases.libreelec.tv/LibreELEC-Generic.x86_64-11.0.6.img.gz"
					},
					{
						"version": "10.0",
						"url": "https://releases.libreelec.tv/LibreELEC-Generic.x86_64-10.0.4.img.gz"
					}
				],
				"nok": []
			}
		},
		{
			"name": "linux",
			"fullname": "Linux Kernel",
			"source": "current",
			"releases": {
				"latest": {
					"version": "6.13.6",
					"date": "2025-03-07",
					"url": "https://mirrors.edge.kernel.org/pub/linux/kernel/v6.x/linux-6.13.6.tar.gz"
				},
				"all": [
					"6.13.6",
					"6.13.5",
					"6.13.4",
					"6.13.3",
					"6.13.2",
					"6.13.1",
					"6.13",
					"6.12.18",
					"6.12.17",
					"6.12.16",
					"6.12.15",
					"6.12.14",
					"6.12.13",
					"6.12.12",
					"6.12.11",
					"6.12.10",
					"6.12.9",
					"6.12.8",
					"6.12.7",
					"6.12.6",
					"6.12.5",
					"6.12.4",
					"6.12.3",
					"6.12.2",
					"6.12.1",
					"6.12",
					"6.11.11",
					"6.11.10",
					"6.11.9",
					"6.11.8",
					"6.11.7",
					"6.11.6",
					"6.11.5",
					"6.11.4",
					"6.11.3",
					"6.11.2",
					"6.11.1",
					"6.11",
					"6.10.14",
					"6.10.13",
					"6.10.12",
					"6.10.11",
					"6.10.10",
					"6.10.9",
					"6.10.8",
					"6.10.7",
					"6.10.6",
					"6.10.5",
					"6.10.4",
					"6.10.3",
					"6.10.2",
					"6.10.1",
					"6.10",
					"6.9.12",
					"6.9.11",
					"6.9.10",
					"6.9.9",
					"6.9.8",
					"6.9.7",
					"6.9.6",
					"6.9.5",
					"6.9.4",
					"6.9.3",
					"6.9.2",
					"6.9.1",
					"6.9",
					"6.8.12",
					"6.8.11",
					"6.8.10",
					"6.8.9",
					"6.8.8",
					"6.8.7",
					"6.8.6",
					"6.8.5",
					"6.8.4",
					"6.8.3",
					"6.8.2",
					"6.8.1",
					"6.8",
					"6.7.12",
					"6.7.11",
					"6.7.10",
					"6.7.9",
					"6.7.8",
					"6.7.7",
					"6.7.6",
					"6.7.5",
					"6.7.4",
					"6.7.3",
					"6.7.2",
					"6.7.1",
					"6.7",
					"6.6.81",
					"6.6.80",
					"6.6.79",
					"6.6.78",
					"6.6.77",
					"6.6.76",
					"6.6.75",
					"6.6.74",
					"6.6.73",
					"6.6.72",
					"6.6.71",
					"6.6.70",
					"6.6.69",
					"6.6.68",
					"6.6.67",
					"6.6.66",
					"6.6.65",
					"6.6.64",
					"6.6.63",
					"6.6.62",
					"6.6.61",
					"6.6.60",
					"6.6.59",
					"6.6.58",
					"6.6.57",
					"6.6.56",
					"6.6.55",
					"6.6.54",
					"6.6.53",
					"6.6.52",
					"6.6.51",
					"6.6.50",
					"6.6.49",
					"6.6.48",
					"6.6.47",
					"6.6.46",
					"6.6.45",
					"6.6.44",
					"6.6.43",
					"6.6.42",
					"6.6.41",
					"6.6.40",
					"6.6.39",
					"6.6.38",
					"6.6.37",
					"6.6.36",
					"6.6.35",
					"6.6.34",
					"6.6.33",
					"6.6.32",
					"6.6.31",
					"6.6.30",
					"6.6.29",
					"6.6.28",
					"6.6.27",
					"6.6.26",
					"6.6.25",
					"6.6.24",
					"6.6.23",
					"6.6.22",
					"6.6.21",
					"6.6.20",
					"6.6.19",
					"6.6.18",
					"6.6.17",
					"6.6.16",
					"6.6.15",
					"6.6.14",
					"6.6.13",
					"6.6.12",
					"6.6.11",
					"6.6.10",
					"6.6.9",
					"6.6.8",
					"6.6.7",
					"6.6.6",
					"6.6.5",
					"6.6.4",
					"6.6.3",
					"6.6.2",
					"6.6.1",
					"6.6",
					"6.5.13",
					"6.5.12",
					"6.5.11",
					"6.5.10",
					"6.5.9",
					"6.5.8",
					"6.5.7",
					"6.5.6",
					"6.5.5",
					"6.5.4",
					"6.5.3",
					"6.5.2",
					"6.5.1",
					"6.5",
					"6.4.16",
					"6.4.15",
					"6.4.14",
					"6.4.13",
					"6.4.12",
					"6.4.11",
					"6.4.10",
					"6.4.9",
					"6.4.8",
					"6.4.7",
					"6.4.6",
					"6.4.5",
					"6.4.4",
					"6.4.3",
					"6.4.2",
					"6.4.1",
					"6.4",
					"6.3.13",
					"6.3.12",
					"6.3.11",
					"6.3.10",
					"6.3.9",
					"6.3.8",
					"6.3.7",
					"6.3.6",
					"6.3.5",
					"6.3.4",
					"6.3.3",
					"6.3.2",
					"6.3.1",
					"6.3",
					"6.2.16",
					"6.2.15",
					"6.2.14",
					"6.2.13",
					"6.2.12",
					"6.2.11",
					"6.2.10",
					"6.2.9",
					"6.2.8",
					"6.2.7",
					"6.2.6",
					"6.2.5",
					"6.2.4",
					"6.2.3",
					"6.2.2",
					"6.2.1",
					"6.2",
					"6.1.130",
					"6.1.129",
					"6.1.128",
					"6.1.127",
					"6.1.126",
					"6.1.125",
					"6.1.124",
					"6.1.123",
					"6.1.122",
					"6.1.121",
					"6.1.120",
					"6.1.119",
					"6.1.118",
					"6.1.117",
					"6.1.116",
					"6.1.115",
					"6.1.114",
					"6.1.113",
					"6.1.112",
					"6.1.111",
					"6.1.110",
					"6.1.109",
					"6.1.108",
					"6.1.107",
					"6.1.106",
					"6.1.105",
					"6.1.104",
					"6.1.103",
					"6.1.102",
					"6.1.101",
					"6.1.100",
					"6.1.99",
					"6.1.98",
					"6.1.97",
					"6.1.96",
					"6.1.95",
					"6.1.94",
					"6.1.93",
					"6.1.92",
					"6.1.91",
					"6.1.90",
					"6.1.89",
					"6.1.88",
					"6.1.87",
					"6.1.86",
					"6.1.85",
					"6.1.84",
					"6.1.83",
					"6.1.82",
					"6.1.81",
					"6.1.80",
					"6.1.79",
					"6.1.78",
					"6.1.77",
					"6.1.76",
					"6.1.75",
					"6.1.74",
					"6.1.73",
					"6.1.72",
					"6.1.71",
					"6.1.70",
					"6.1.69",
					"6.1.68",
					"6.1.67",
					"6.1.66",
					"6.1.65",
					"6.1.64",
					"6.1.63",
					"6.1.62",
					"6.1.61",
					"6.1.60",
					"6.1.59",
					"6.1.58",
					"6.1.57",
					"6.1.56",
					"6.1.55",
					"6.1.54",
					"6.1.53",
					"6.1.52",
					"6.1.51",
					"6.1.50",
					"6.1.49",
					"6.1.48",
					"6.1.47",
					"6.1.46",
					"6.1.45",
					"6.1.44",
					"6.1.43",
					"6.1.42",
					"6.1.41",
					"6.1.40",
					"6.1.39",
					"6.1.38",
					"6.1.37",
					"6.1.36",
					"6.1.35",
					"6.1.34",
					"6.1.33",
					"6.1.32",
					"6.1.31",
					"6.1.30",
					"6.1.29",
					"6.1.28",
					"6.1.27",
					"6.1.26",
					"6.1.25",
					"6.1.24",
					"6.1.23",
					"6.1.22",
					"6.1.21",
					"6.1.20",
					"6.1.19",
					"6.1.18",
					"6.1.17",
					"6.1.16",
					"6.1.15",
					"6.1.14",
					"6.1.13",
					"6.1.12",
					"6.1.11",
					"6.1.10",
					"6.1.9",
					"6.1.8",
					"6.1.7",
					"6.1.6",
					"6.1.5",
					"6.1.4",
					"6.1.3",
					"6.1.2",
					"6.1.1",
					"6.1",
					"6.0.19",
					"6.0.18",
					"6.0.17",
					"6.0.16",
					"6.0.15",
					"6.0.14",
					"6.0.13",
					"6.0.12",
					"6.0.11",
					"6.0.10",
					"6.0.9",
					"6.0.8",
					"6.0.7",
					"6.0.6",
					"6.0.5",
					"6.0.4",
					"6.0.3",
					"6.0.2",
					"6.0.1",
					"6.0"
				],
				"valid": [
					{
						"version": "6.13.6",
						"url": "https://mirrors.edge.kernel.org/pub/linux/kernel/v6.x/linux-6.13.6.tar.gz"
					},
					{
						"version": "6.13.5",
						"url": "https://mirrors.edge.kernel.org/pub/linux/kernel/v6.x/linux-6.13.5.tar.gz"
					},
					{
						"version": "6.13.4",
						"url": "https://mirrors.edge.kernel.org/pub/linux/kernel/v6.x/linux-6.13.4.tar.gz"
					}
				],
				"nok": []
			}
		},
		{
			"name": "mageia",
			"fullname": "Mageia",
			"source": "current",
			"releases": {
				"latest": {
					"version": "9",
					"date": "2023-08-24",
					"url": "https://mirrors.kernel.org/mageia/iso/9/Mageia-9-x86_64/Mageia-9-x86_64.iso"
				},
				"all": [
					"9",
					"8"
				],
				"valid": [
					{
						"version": "9",
						"url": "https://mirrors.kernel.org/mageia/iso/9/Mageia-9-x86_64/Mageia-9-x86_64.iso"
					},
					{
						"version": "8",
						"url": "https://mirrors.kernel.org/mageia/iso/8/Mageia-8-x86_64/Mageia-8-x86_64.iso"
					}
				],
				"nok": []
			}
		},
		{
			"name": "manjaro",
			"fullname": "Manjaro Linux",
			"source": "current",
			"releases": {
				"latest": {
					"version": "24.2.1",
					"date": "rolling",
					"url": "https://download.manjaro.org/kde/24.2.1/manjaro-kde-24.2.1-241216-linux612.iso"
				},
				"all": [
					"24.2.1"
				],
				"valid": [
					{
						"version": "24.2.1",
						"url": "https://download.manjaro.org/kde/24.2.1/manjaro-kde-24.2.1-241216-linux612.iso"
					}
				],
				"nok": []
			}
		},
		{
			"name": "mint",
			"fullname": "Linux Mint",
			"source": "current",
			"releases": {
				"latest": {
					"version": "22.1",
					"date": "2025-01-10",
					"url": "https://mirrors.edge.kernel.org/linuxmint/stable/22.1/linuxmint-22.1-cinnamon-64bit.iso"
				},
				"all": [
					"22.1",
					"22",
					"21.3",
					"21.2",
					"21.1",
					"21",
					"20.3",
					"20.2",
					"20.1",
					"20",
					"19.3"
				],
				"valid": [
					{
						"version": "22.1",
						"url": "https://mirrors.edge.kernel.org/linuxmint/stable/22.1/linuxmint-22.1-cinnamon-64bit.iso"
					},
					{
						"version": "22",
						"url": "https://mirrors.edge.kernel.org/linuxmint/stable/22/linuxmint-22-cinnamon-64bit.iso"
					},
					{
						"version": "21.3",
						"url": "https://mirrors.edge.kernel.org/linuxmint/stable/21.3/linuxmint-21.3-cinnamon-64bit.iso"
					}
				],
				"nok": []
			}
		},
		{
			"name": "mx",
			"fullname": "MX Linux",
			"source": "current",
			"releases": {
				"latest": {
					"version": "23.5",
					"date": "2025-01-12",
					"url": "https://sourceforge.net/projects/mx-linux/files/Final/KDE/MX-23.5_KDE_x64.iso"
				},
				"all": [
					"23.5",
					"23.4",
					"23.3",
					"23.2",
					"23.1",
					"23",
					"21.3",
					"21.2.1",
					"21.1",
					"21",
					"19.4",
					"19.3",
					"19.2",
					"19.1",
					"19",
					"18.3",
					"18.2",
					"18.1",
					"18",
					"17.1",
					"17",
					"16.1",
					"16",
					"15",
					"",
					"",
					"",
					""
				],
				"valid": [
					{
						"version": "23.5",
						"url": "https://sourceforge.net/projects/mx-linux/files/Final/KDE/MX-23.5_KDE_x64.iso"
					},
					{
						"version": "23.4",
						"url": "https://sourceforge.net/projects/mx-linux/files/Old/MX-23.4/KDE/MX-23.4_KDE_x64.iso"
					},
					{
						"version": "23.3",
						"url": "https://sourceforge.net/projects/mx-linux/files/Old/MX-23.3/KDE/MX-23.3_KDE_x64.iso"
					}
				],
				"nok": []
			}
		},
		{
			"name": "openmediavault",
			"fullname": "OpenMediaVault",
			"source": "current",
			"releases": {
				"latest": {
					"version": "7.4.17",
					"date": "2024-12-23",
					"url": "https://sourceforge.net/projects/openmediavault/files/iso/7.4.17/openmediavault_7.4.17-amd64.iso"
				},
				"all": [
					"7.4.17",
					"7.0-32",
					"7.0-20",
					"7.0-16",
					"6.5.0",
					"6.0.24",
					"6.0-34",
					"6.0-16",
					"6.0",
					"5.6.13",
					"5.5.11",
					"5.3.9",
					"5.3.4",
					"5.0.5",
					"5.0.1beta",
					"5.0beta",
					"4.1.22",
					"4.1.3",
					"4.0.14",
					"4.0.9",
					"3.0.94",
					"3.0.86",
					"3.0",
					"2.1",
					"2.0.13",
					"1.9",
					"0.5.48",
					"0.5.0.24",
					"0.4.32",
					"0.4",
					"0.3",
					"0.2.5",
					"0.2"
				],
				"valid": [
					{
						"version": "7.4.17",
						"url": "https://sourceforge.net/projects/openmediavault/files/iso/7.4.17/openmediavault_7.4.17-amd64.iso"
					},
					{
						"version": "7.0-32",
						"url": "https://sourceforge.net/projects/openmediavault/files/iso/7.0-32/openmediavault_7.0-32-amd64.iso"
					},
					{
						"version": "7.0-20",
						"url": "https://sourceforge.net/projects/openmediavault/files/iso/7.0-20/openmediavault_7.0-20-amd64.iso"
					}
				],
				"nok": []
			}
		},
		{
			"name": "opensuse",
			"fullname": "openSUSE (Leap)",
			"source": "current",
			"releases": {
				"latest": {
					"version": "15.6",
					"date": "2024-06-20",
					"url": "https://download.opensuse.org/distribution/leap/15.6/iso/openSUSE-Leap-15.6-DVD-x86_64-Media.iso"
				},
				"all": [
					"16.0",
					"15.6",
					"15.5",
					"15.4",
					"15.3",
					"15.2",
					"15.1",
					"15.0"
				],
				"valid": [
					{
						"version": "15.6",
						"url": "https://download.opensuse.org/distribution/leap/15.6/iso/openSUSE-Leap-15.6-DVD-x86_64-Media.iso"
					},
					{
						"version": "15.5",
						"url": "https://download.opensuse.org/distribution/leap/15.5/iso/openSUSE-Leap-15.5-DVD-x86_64-Media.iso"
					},
					{
						"version": "15.4",
						"url": "https://download.opensuse.org/distribution/leap/15.4/iso/openSUSE-Leap-15.4-DVD-x86_64-Media.iso"
					}
				],
				"nok": [
					{
						"version": "16.0",
						"url": "https://download.opensuse.org/distribution/leap/16.0/iso/ERR_INV"
					}
				]
			}
		},
		{
			"name": "opnsense",
			"fullname": "OPNsense",
			"source": "current",
			"releases": {
				"latest": {
					"version": "25.1",
					"date": "2025-01-28",
					"url": "https://mirror.wdc1.us.leaseweb.net/opnsense/releases/25.1/OPNsense-25.1-dvd-amd64.iso.bz2"
				},
				"all": [
					"25.1",
					"24.7",
					"24.1",
					"23.7",
					"23.1",
					"22.7",
					"22.1",
					"21.7",
					"21.1"
				],
				"valid": [
					{
						"version": "25.1",
						"url": "https://mirror.wdc1.us.leaseweb.net/opnsense/releases/25.1/OPNsense-25.1-dvd-amd64.iso.bz2"
					},
					{
						"version": "24.7",
						"url": "https://mirror.wdc1.us.leaseweb.net/opnsense/releases/24.7/OPNsense-24.7-dvd-amd64.iso.bz2"
					},
					{
						"version": "24.1",
						"url": "https://mirror.wdc1.us.leaseweb.net/opnsense/releases/24.1/OPNsense-24.1-dvd-amd64.iso.bz2"
					}
				],
				"nok": []
			}
		},
		{
			"name": "parrot",
			"fullname": "Parrot Security",
			"source": "current",
			"releases": {
				"latest": {
					"version": "6.3.2",
					"date": "2025-01-28",
					"url": "https://deb.parrot.sh/parrot/iso/6.3.2/Parrot-security-6.3.2_amd64.iso"
				},
				"all": [
					"6.3.2",
					"6.2",
					"6.1",
					"6.0",
					"5.3",
					"5.2-1",
					"5.2",
					"5.1.2",
					"5.1.1",
					"5.1",
					"5.0.1",
					"5.0",
					"4.11.3",
					"4.11.2",
					"4.11.1",
					"4.11",
					"4.10",
					"4.9.1",
					"4.9",
					"4.8",
					"4.7",
					"4.6"
				],
				"valid": [
					{
						"version": "6.3.2",
						"url": "https://deb.parrot.sh/parrot/iso/6.3.2/Parrot-security-6.3.2_amd64.iso"
					},
					{
						"version": "6.2",
						"url": "https://deb.parrot.sh/parrot/iso/6.2/Parrot-security-6.2_amd64.iso"
					},
					{
						"version": "6.1",
						"url": "https://deb.parrot.sh/parrot/iso/6.1/Parrot-security-6.1_amd64.iso"
					}
				],
				"nok": []
			}
		},
		{
			"name": "pfsense",
			"fullname": "pfSense",
			"source": "current",
			"releases": {
				"latest": {
					"version": "2.7.2",
					"date": "2023-12-08",
					"url": "https://atxfiles.netgate.com/mirror/downloads/pfSense-CE-2.7.2-RELEASE-amd64.iso.gz"
				},
				"all": [
					"2.7.2",
					"2.7.1",
					"2.7.0",
					"2.6.0"
				],
				"valid": [
					{
						"version": "2.7.2",
						"url": "https://atxfiles.netgate.com/mirror/downloads/pfSense-CE-2.7.2-RELEASE-amd64.iso.gz"
					},
					{
						"version": "2.7.1",
						"url": "https://atxfiles.netgate.com/mirror/downloads/pfSense-CE-2.7.1-RELEASE-amd64.iso.gz"
					},
					{
						"version": "2.7.0",
						"url": "https://atxfiles.netgate.com/mirror/downloads/pfSense-CE-2.7.0-RELEASE-amd64.iso.gz"
					}
				],
				"nok": []
			}
		},
		{
			"name": "proxmox",
			"fullname": "Proxmox",
			"source": "current",
			"releases": {
				"latest": {
					"version": "8.3-1",
					"date": "2024-11-21",
					"url": "https://enterprise.proxmox.com/iso/proxmox-ve_8.3-1.iso"
				},
				"all": [
					"8.3-1",
					"8.2-2",
					"7.4-1",
					"6.4-1",
					"5.4-1",
					"4.4-eb2d6f1e-2",
					"3.4-102d4547-6"
				],
				"valid": [
					{
						"version": "8.3-1",
						"url": "https://enterprise.proxmox.com/iso/proxmox-ve_8.3-1.iso"
					},
					{
						"version": "8.2-2",
						"url": "https://enterprise.proxmox.com/iso/proxmox-ve_8.2-2.iso"
					},
					{
						"version": "7.4-1",
						"url": "https://enterprise.proxmox.com/iso/proxmox-ve_7.4-1.iso"
					}
				],
				"nok": []
			}
		},
		{
			"name": "raspios",
			"fullname": "Raspberry Pi OS",
			"source": "current",
			"releases": {
				"latest": {
					"version": "2024-11-19",
					"date": "2024-11-19",
					"url": "https://downloads.raspberrypi.com/raspios_arm64/images/raspios_arm64-2024-11-19/2024-11-19-raspios-bookworm-arm64.img.xz"
				},
				"all": [
					"2024-11-19",
					"2024-11-18",
					"2024-10-28",
					"2024-07-04",
					"2024-03-15",
					"2024-03-13",
					"2023-12-06",
					"2023-10-10",
					"2023-05-03",
					"2023-02-22",
					"2022-09-26",
					"2022-09-07",
					"2022-04-07",
					"2022-01-28",
					"2021-11-08",
					"2021-05-28",
					"2021-04-09",
					"2020-08-24",
					"2020-05-28"
				],
				"valid": [
					{
						"version": "2024-11-19",
						"url": "https://downloads.raspberrypi.com/raspios_arm64/images/raspios_arm64-2024-11-19/2024-11-19-raspios-bookworm-arm64.img.xz"
					},
					{
						"version": "2024-11-18",
						"url": "https://downloads.raspberrypi.com/raspios_arm64/images/raspios_arm64-2024-11-18/2024-11-13-raspios-bookworm-arm64.img.xz"
					},
					{
						"version": "2024-10-28",
						"url": "https://downloads.raspberrypi.com/raspios_arm64/images/raspios_arm64-2024-10-28/2024-10-22-raspios-bookworm-arm64.img.xz"
					}
				],
				"nok": []
			}
		},
		{
			"name": "rescuezilla",
			"fullname": "Rescuezilla",
			"source": "current",
			"releases": {
				"latest": {
					"version": "2.5.1",
					"date": "2024-09-09",
					"url": "https://github.com/rescuezilla/rescuezilla/releases/download/2.5.1/rescuezilla-2.5.1-64bit.noble.iso"
				},
				"all": [
					"2.5.1",
					"2.5",
					"2.4.2",
					"2.4.1",
					"2.4",
					"2.3.1",
					"2.3",
					"2.2",
					"2.1.3",
					"2.1.2",
					"2.1.1",
					"2.1",
					"2.0",
					"1.0.6.1",
					"1.0.6",
					"1.0.5.1",
					"1.0.5",
					"1.0.4",
					"1.0.3",
					"1.0.2",
					"1.0.1",
					"1.0.0",
					"0.9.9",
					"0.9.8"
				],
				"valid": [
					{
						"version": "2.5.1",
						"url": "https://github.com/rescuezilla/rescuezilla/releases/download/2.5.1/rescuezilla-2.5.1-64bit.noble.iso"
					},
					{
						"version": "2.5",
						"url": "https://github.com/rescuezilla/rescuezilla/releases/download/2.5/rescuezilla-2.5-64bit.noble.iso"
					},
					{
						"version": "2.4.2",
						"url": "https://github.com/rescuezilla/rescuezilla/releases/download/2.4.2/rescuezilla-2.4.2-64bit.kinetic.iso"
					}
				],
				"nok": []
			}
		},
		{
			"name": "rocky",
			"fullname": "Rocky Linux",
			"source": "current",
			"releases": {
				"latest": {
					"version": "9.5",
					"date": "2024-11-16",
					"url": "https://download.rockylinux.org/pub/rocky/9.5/isos/x86_64/Rocky-9.5-x86_64-dvd.iso"
				},
				"all": [
					"9.5",
					"9.4",
					"9.3",
					"9.2",
					"9.1",
					"9.0",
					"9",
					"8.10",
					"8.9",
					"8.8",
					"8.7",
					"8.6",
					"8.5",
					"8.4",
					"8"
				],
				"valid": [
					{
						"version": "9.5",
						"url": "https://download.rockylinux.org/pub/rocky/9.5/isos/x86_64/Rocky-9.5-x86_64-dvd.iso"
					},
					{
						"version": "9.4",
						"url": "https://dl.rockylinux.org/vault/rocky/9.4/isos/x86_64/Rocky-9.4-x86_64-dvd.iso"
					},
					{
						"version": "9.3",
						"url": "https://dl.rockylinux.org/vault/rocky/9.3/isos/x86_64/Rocky-9.3-x86_64-dvd.iso"
					}
				],
				"nok": []
			}
		},
		{
			"name": "shredos",
			"fullname": "ShredOS",
			"source": "current",
			"releases": {
				"latest": {
					"version": "2024.02.2_26.0",
					"date": "2024-05-29",
					"url": "https://github.com/PartialVolume/shredos.x86_64/releases/download/v2024.02.2_26.0_x86-64_0.37/shredos-2024.02.2_26.0_x86-64_0.37_20240611.iso"
				},
				"all": [
					"2024.11_27",
					"2024.02.2_26.0",
					"2023.08.2_25.0",
					"2021.08.2_23.5",
					"2021.08.2_23.4",
					"2021.08.2_23.3",
					"2021.08.2_23.2",
					"2021.08.2_23.1",
					"2021.08.2_23",
					"2021.08.2_22",
					"2021.08.2_21",
					"2021.08.2_20",
					"2020.05.017",
					"2020.05.016",
					"2020.05.016",
					"2020.05.014",
					"2020.05.013",
					"2020.05.012",
					"2020.05.011",
					"2020.05.010",
					"2020.05.009",
					"2020.05.008",
					"2020.05.007",
					"2020.05.006",
					"2020.02.005",
					"2020.02.004-0.29.006"
				],
				"valid": [
					{
						"version": "2024.02.2_26.0",
						"url": "https://github.com/PartialVolume/shredos.x86_64/releases/download/v2024.02.2_26.0_x86-64_0.37/shredos-2024.02.2_26.0_x86-64_0.37_20240611.iso"
					},
					{
						"version": "2023.08.2_25.0",
						"url": "https://github.com/PartialVolume/shredos.x86_64/releases/download/v2023.08.2_25.0_x86-64_0.35/shredos-2023.08.2_25.0_x86-64_0.35_20240207.iso"
					},
					{
						"version": "2021.08.2_23.5",
						"url": "https://github.com/PartialVolume/shredos.x86_64/releases/download/v2021.08.2_23.5_x86-64_0.34/shredos-2021.08.2_23.5_x86-64_0.34_20230702.img"
					}
				],
				"nok": [
					{
						"version": "2024.11_27",
						"url": "https://github.com/PartialVolume/shredos.x86_64/releases/download/v2024.11_27_x86-64_0.38_20250125/shredos-2024.11_27_x86-64_0.38_20250125_vanilla.iso"
					}
				]
			}
		},
		{
			"name": "slackware",
			"fullname": "Slackware",
			"source": "current",
			"releases": {
				"latest": {
					"version": "15.0",
					"date": "2022-02-03",
					"url": "https://mirrors.slackware.com/slackware/slackware-iso/slackware64-15.0-iso/slackware64-15.0-install-dvd.iso"
				},
				"all": [
					"15.0",
					"14.2",
					"14.1",
					"14.0",
					"13.37",
					"13.1",
					"13.0"
				],
				"valid": [
					{
						"version": "15.0",
						"url": "https://mirrors.slackware.com/slackware/slackware-iso/slackware64-15.0-iso/slackware64-15.0-install-dvd.iso"
					},
					{
						"version": "14.2",
						"url": "https://mirrors.slackware.com/slackware/slackware-iso/slackware64-14.2-iso/slackware64-14.2-install-dvd.iso"
					},
					{
						"version": "14.1",
						"url": "https://mirrors.slackware.com/slackware/slackware-iso/slackware64-14.1-iso/slackware64-14.1-install-dvd.iso"
					}
				],
				"nok": []
			}
		},
		{
			"name": "truenas",
			"fullname": "TrueNAS (Community Edition)",
			"source": "current",
			"releases": {
				"latest": {
					"version": "24.10.2",
					"date": "ERR_INV",
					"url": "https://download.sys.truenas.net/TrueNAS-SCALE-ElectricEel/24.10.2/TrueNAS-SCALE-24.10.2.iso"
				},
				"all": [
					"24.10.2",
					"24.10.1",
					"24.10.0.2",
					"24.10.0.1",
					"24.10.0"
				],
				"valid": [
					{
						"version": "24.10.2",
						"url": "https://download.sys.truenas.net/TrueNAS-SCALE-ElectricEel/24.10.2/TrueNAS-SCALE-24.10.2.iso"
					},
					{
						"version": "24.10.1",
						"url": "https://download.sys.truenas.net/TrueNAS-SCALE-ElectricEel/24.10.1/TrueNAS-SCALE-24.10.1.iso"
					},
					{
						"version": "24.10.0.2",
						"url": "https://download.sys.truenas.net/TrueNAS-SCALE-ElectricEel/24.10.0.2/TrueNAS-SCALE-24.10.0.2.iso"
					}
				],
				"nok": []
			}
		},
		{
			"name": "ubuntu",
			"fullname": "Ubuntu",
			"source": "current",
			"releases": {
				"latest": {
					"version": "24.10",
					"date": "2024-10-09",
					"url": "https://releases.ubuntu.com/24.10/ubuntu-24.10-desktop-amd64.iso"
				},
				"all": [
					"24.10",
					"24.04.2",
					"24.04.1",
					"24.04",
					"22.04.5",
					"22.04.4",
					"22.04",
					"20.04.6",
					"20.04",
					"18.04.6",
					"18.04",
					"16.04.7",
					"16.04",
					"14.04.6",
					"14.04"
				],
				"valid": [
					{
						"version": "24.10",
						"url": "https://releases.ubuntu.com/24.10/ubuntu-24.10-desktop-amd64.iso"
					},
					{
						"version": "24.04.2",
						"url": "https://releases.ubuntu.com/24.04.2/ubuntu-24.04.2-desktop-amd64.iso"
					},
					{
						"version": "24.04",
						"url": "https://releases.ubuntu.com/24.04/ubuntu-24.04.2-desktop-amd64.iso"
					}
				],
				"nok": [
					{
						"version": "24.04.1",
						"url": "https://releases.ubuntu.com/24.04.1/ERR_INV"
					}
				]
			}
		},
		{
			"name": "xcpng",
			"fullname": "XCP-ng",
			"source": "current",
			"releases": {
				"latest": {
					"version": "8.2",
					"date": "2022-02-25",
					"url": "https://updates.xcp-ng.org/isos/8.2/xcp-ng-8.2.1.iso"
				},
				"all": [
					"8.3",
					"8.2",
					"8.1",
					"8.0",
					"7.6",
					"7.5"
				],
				"valid": [
					{
						"version": "8.2",
						"url": "https://updates.xcp-ng.org/isos/8.2/xcp-ng-8.2.1.iso"
					},
					{
						"version": "8.1",
						"url": "https://updates.xcp-ng.org/isos/8.1/xcp-ng-8.1.0-2.iso"
					},
					{
						"version": "8.0",
						"url": "https://updates.xcp-ng.org/isos/8.0/xcp-ng-8.0.0.iso"
					}
				],
				"nok": [
					{
						"version": "8.3",
						"url": "https://updates.xcp-ng.org/isos/8.3/xcp-ng-8.3.0-rc2.iso"
					}
				]
			}
		}
	]
}
